United Airlines Flight Analysis (June 2024)
…
ByDayDelay <- ByDayDelay %>% mutate(Index = case_when(DAY_OF_WEEK == "Sunday" ~ 1,
                                     DAY_OF_WEEK == "Monday" ~ 2,
                                     DAY_OF_WEEK == "Tuesday" ~ 3,
                                     DAY_OF_WEEK == "Wednesday" ~ 4,
                                     DAY_OF_WEEK == "Thursday" ~ 5,
                                     DAY_OF_WEEK == "Friday" ~ 6,
                                     TRUE ~ 7))

ByDayDelay %>% group_by(DAY_OF_WEEK, OnTimeStatus) %>% 
  summarize(Flights = n())

`summarise()` has grouped output by 'DAY_OF_WEEK'. You can override using the
`.groups` argument.

# A tibble: 21 × 3
# Groups:   DAY_OF_WEEK [7]
   DAY_OF_WEEK OnTimeStatus Flights
   <chr>       <chr>          <int>
 1 Friday      Delayed         3455
 2 Friday      Early           4743
 3 Friday      On-Time          410
 4 Monday      Delayed         3120
 5 Monday      Early           5093
 6 Monday      On-Time          407
 7 Saturday    Delayed         4034
 8 Saturday    Early           5201
 9 Saturday    On-Time          499
10 Sunday      Delayed         4600
# ℹ 11 more rows
…
